%!PS-Adobe-3.0 EPSF-3.0
%%BoundingBox: -56.6929 -56.6929 226.7717 170.0787
%%Title: triangulo.eu
%%Creator: eukleides
%%EndComments
gsave 28.3464566929 dup scale
 0.0176 setlinewidth 1 setlinecap 1 setlinejoin
 0.0000  0.0000  6.0000  0.0000  2.2500  3.6742 moveto
2 {lineto} repeat closepath stroke
showpage grestore
%%EOF
